Mini Project #01: Netflix Top 10 Analysis – STA 9750 Submission Material
…
film_name <- us_films$show_title
recent_date <- us_films$week

# Print result
us_films

# A tibble: 134 × 3
# Groups:   show_title [134]
   show_title             week       debut_rank
   <chr>                  <date>          <dbl>
 1 A Family Affair        2024-07-14          3
 2 A Madea Homecoming     2025-07-20          9
 3 A Man Called Otto      2023-06-04          8
 4 Aftermath              2025-02-23          4
 5 American Assassin      2024-02-18          4
 6 Anyone But You         2024-05-26         10
 7 Army of Thieves        2021-11-14          7
 8 Back in Action         2025-02-09          3
 9 Bad Boys: Ride or Die  2024-11-03          9
10 Best. Christmas. Ever! 2023-12-03          5
# ℹ 124 more rows
…
