Mini-Project 02 - Making Backyards Affordable for All – STA 9750 Submission Material
…
Warning in left_join(ungroup(slice(arrange(group_by(filter(WAGES_clean, : Detected an unexpected many-to-many relationship between `x` and `y`.
ℹ Row 1 of `x` matches multiple rows in `y`.
ℹ Row 112 of `y` matches multiple rows in `x`.
ℹ If a many-to-many relationship is expected, set `relationship =
  "many-to-many"` to silence this warning.

Code

# Display the full table
q4_result

# A tibble: 38 × 4
    YEAR NAME                                               CBSA_code EMPLOYMENT
   <dbl> <chr>                                                  <dbl>      <dbl>
 1  2009 New York-Northern New Jersey-Long Island, NY-NJ-P…     35620      16349
 2  2009 New York-Newark-Jersey City, NY-NJ-PA Metro Area       35620      16349
 3  2009 New York-Newark-Jersey City, NY-NJ Metro Area          35620      16349
 4  2010 Dallas-Fort Worth-Arlington, TX Metro Area             19100      13238
 5  2011 Dallas-Fort Worth-Arlington, TX Metro Area             19100      13283
 6  2012 New York-Northern New Jersey-Long Island, NY-NJ-P…     35620      14423
 7  2012 New York-Newark-Jersey City, NY-NJ-PA Metro Area       35620      14423
 8  2012 New York-Newark-Jersey City, NY-NJ Metro Area          35620      14423
 9  2013 New York-Northern New Jersey-Long Island, NY-NJ-P…     35620      14251
10  2013 New York-Newark-Jersey City, NY-NJ-PA Metro Area       35620      14251
# ℹ 28 more rows
…
